{
  "projFile": "zeus.fsproj",
  "outDir": "dist",
  "module": "commonjs",
  "sourceMaps": true,
  "targets": {
    "production": {
      "sourceMaps": false
    }
  },
  "refs":"Fable.Core=fable-core/umd"
}